ActsPixelClusterizationAlg                                        INFO Clusterization statistics
|----------|------------|
| RDOs     |    3423993 |
| Clusters |    1165578 |
|----------|------------|
ActsStripClusterizationAlg                                        INFO Clusterization statistics
|----------|------------|
| RDOs     |    1345365 |
| Clusters |    1081478 |
|----------|------------|
ActsPixelSpacePointFormationAlg                                   INFO Space Point Formation statistics
|--------------|------------|
| Clusters     |    1165578 |
| Space Points |    1165578 |
|--------------|------------|
ActsStripSpacePointFormationAlg                                   INFO Space Point Formation statistics
|----------------------|------------|
| Clusters             |    1081478 |
| Space Points         |     325456 |
| Overlap Space Points |     101370 |
|----------------------|------------|
ActsPixelSeedingAlg                                               INFO Seed statistics
|-------------|------------|
| Spacepoints |    1165578 |
| Seeds       |     123542 |
|-------------|------------|
ActsStripSeedingAlg                                               INFO Seed statistics
|-------------|------------|
| Spacepoints |     426826 |
| Seeds       |      25844 |
|-------------|------------|
ActsTrackFindingAlg                                               INFO statistics
|-----------------------------------|------------|------------|------------|
|                           All eta | PPP        | SSS        | ALL        |
|-----------------------------------|------------|------------|------------|
| Input seeds                       |     123542 |      25844 |     149386 |
| No track parameters               |          0 |          0 |          0 |
| Used   seeds                      |      77712 |      16369 |      94081 |
| Cannot find track                 |      63037 |      12483 |      75520 |
| Duplicate seeds                   |      45830 |       9475 |      55305 |
| Initial param estimation failed   |          0 |          0 |          0 |
| CKF tracks                        |      14675 |       3886 |      18561 |
| Rejected refined parameters       |          0 |          0 |          0 |
| selected tracks                   |      13261 |        818 |      14079 |
| Stopped tracks reaching max holes |      60650 |      11966 |      72616 |
| Seeds with more than one branch   |          0 |          0 |          0 |
| Tracks failing second CKF         |          8 |        195 |        203 |
| Stopped tracks below pT cut       |       2387 |        517 |       2904 |
| Stopped tracks above max eta      |          0 |          0 |          0 |
| Total shared hits                 |      91831 |      18315 |     110146 |
|-----------------------------------|------------|------------|------------|
ActsTrackFindingAlg                                               INFO Ratios
|------------------------------------------|------------|------------|------------|
|                                          | PPP        | SSS        | ALL        |
|------------------------------------------|------------|------------|------------|
| failed / seeds                           |   0.510248 |   0.483013 |   0.505536 |
| duplication / seeds                      |   0.370967 |   0.366623 |   0.370215 |
| Rejected refined params / seeds          |          0 |          0 |          0 |
| selected / CKF tracks                    |   0.903646 |   0.210499 |   0.758526 |
| selected tracks / used seeds             |   0.170643 |  0.0499725 |   0.149648 |
| branched tracks / used seeds             |          0 |          0 |          0 |
| no 2nd CKF / CKF tracks                  | 0.000545145 |  0.0501801 |  0.0109369 |
| shared hits / CKF tracks                 |    6.25765 |    4.71307 |    5.93427 |
|------------------------------------------|------------|------------|------------|
| selected / CKF tracks           0.0- 0.5 |   0.889937 |   0.115681 |   0.708609 |
|                                 0.5- 1.0 |   0.910973 |   0.242424 |   0.732423 |
|                                 1.0- 1.5 |   0.884882 |   0.222798 |     0.6952 |
|                                 1.5- 2.0 |   0.791143 |   0.216752 |   0.546081 |
|                                 2.0- 2.5 |   0.943948 |   0.214772 |   0.697537 |
|                                 2.5- 3.0 |     0.8824 |          0 |     0.8824 |
|                                 3.0- 3.5 |   0.943727 |          0 |   0.943727 |
|                                 3.5-+inf |   0.963062 |          0 |   0.963062 |
|------------------------------------------|------------|------------|------------|
ActsPrdAssociationAlg                                             INFO Prd Map statistics
|-----------------------|------------|
| N. Tracks             |       9563 |
| N. Pixel Measurements |     102670 |
| N. Strip Measurements |      40107 |
| N. Hgtd Measurements  |          0 |
|-----------------------|------------|
ActsLargeRadiusPixelClusterPreparationAlg                         INFO Data Prep statistics
|---------|------------|
| Inputs  |    1165578 |
| Outputs |    1062974 |
|---------|------------|
ActsLargeRadiusStripClusterPreparationAlg                         INFO Data Prep statistics
|---------|------------|
| Inputs  |    1081478 |
| Outputs |    1041405 |
|---------|------------|
ActsLargeRadiusStripSpacePointPreparationAlg                      INFO Data Prep statistics
|---------|------------|
| Inputs  |     325456 |
| Outputs |     303559 |
|---------|------------|
ActsLargeRadiusStripOv...pSpacePointPreparationAlg                INFO Data Prep statistics
|---------|------------|
| Inputs  |     101370 |
| Outputs |      94564 |
|---------|------------|
ActsLargeRadiusStripSeedingAlg                                    INFO Seed statistics
|-------------|------------|
| Spacepoints |     398123 |
| Seeds       |      10146 |
|-------------|------------|
ActsLargeRadiusTrackFindingAlg                                    INFO statistics
|-----------------------------------|------------|------------|
|                           All eta | SSS        | ALL        |
|-----------------------------------|------------|------------|
| Input seeds                       |      10146 |      10146 |
| No track parameters               |          0 |          0 |
| Used   seeds                      |       9922 |       9922 |
| Cannot find track                 |       8965 |       8965 |
| Duplicate seeds                   |        224 |        224 |
| Initial param estimation failed   |          0 |          0 |
| CKF tracks                        |        957 |        957 |
| Rejected refined parameters       |          0 |          0 |
| selected tracks                   |        132 |        132 |
| Stopped tracks reaching max holes |       6993 |       6993 |
| Seeds with more than one branch   |          0 |          0 |
| Tracks failing second CKF         |         30 |         30 |
| Stopped tracks below pT cut       |       1972 |       1972 |
| Stopped tracks above max eta      |          0 |          0 |
| Total shared hits                 |        776 |        776 |
|-----------------------------------|------------|------------|
ActsLargeRadiusTrackFindingAlg                                    INFO Ratios
|------------------------------------------|------------|------------|
|                                          | SSS        | ALL        |
|------------------------------------------|------------|------------|
| failed / seeds                           |   0.883599 |   0.883599 |
| duplication / seeds                      |  0.0220777 |  0.0220777 |
| Rejected refined params / seeds          |          0 |          0 |
| selected / CKF tracks                    |   0.137931 |   0.137931 |
| selected tracks / used seeds             |  0.0133038 |  0.0133038 |
| branched tracks / used seeds             |          0 |          0 |
| no 2nd CKF / CKF tracks                  |   0.031348 |   0.031348 |
| shared hits / CKF tracks                 |   0.810867 |   0.810867 |
|------------------------------------------|------------|------------|
| selected / CKF tracks           0.0- 0.5 |   0.169014 |   0.169014 |
|                                 0.5- 1.0 |   0.228916 |   0.228916 |
|                                 1.0- 1.5 |   0.204301 |   0.204301 |
|                                 1.5- 2.0 |    0.13948 |    0.13948 |
|                                 2.0- 2.5 |  0.0801394 |  0.0801394 |
|                                 2.5- 3.0 |          0 |          0 |
|                                 3.0- 3.5 |          0 |          0 |
|                                 3.5-+inf |          0 |          0 |
|------------------------------------------|------------|------------|
ActsLargeRadiusPrdAssociationAlg                                  INFO Prd Map statistics
|-----------------------|------------|
| N. Tracks             |         97 |
| N. Pixel Measurements |        481 |
| N. Strip Measurements |        934 |
| N. Hgtd Measurements  |          0 |
|-----------------------|------------|
ActsConversionPixelClusterPreparationAlg                          INFO Data Prep statistics
|---------|------------|
| Inputs  |    1165578 |
| Outputs |      27119 |
|---------|------------|
ActsConversionStripClusterPreparationAlg                          INFO Data Prep statistics
|---------|------------|
| Inputs  |    1081478 |
| Outputs |      15518 |
|---------|------------|
ActsConversionStripSpacePointPreparationAlg                       INFO Data Prep statistics
|---------|------------|
| Inputs  |     325456 |
| Outputs |       4505 |
|---------|------------|
ActsConversionStripSeedingAlg                                     INFO Seed statistics
|-------------|------------|
| Spacepoints |       4505 |
| Seeds       |         71 |
|-------------|------------|
ActsConversionTrackFindingAlg                                     INFO statistics
|-----------------------------------|------------|------------|
|                           All eta | SSS        | ALL        |
|-----------------------------------|------------|------------|
| Input seeds                       |         71 |         71 |
| No track parameters               |          0 |          0 |
| Used   seeds                      |         71 |         71 |
| Cannot find track                 |         54 |         54 |
| Duplicate seeds                   |          0 |          0 |
| Initial param estimation failed   |          0 |          0 |
| CKF tracks                        |         17 |         17 |
| Rejected refined parameters       |          0 |          0 |
| selected tracks                   |          0 |          0 |
| Stopped tracks reaching max holes |         46 |         46 |
| Seeds with more than one branch   |          0 |          0 |
| Tracks failing second CKF         |          0 |          0 |
| Stopped tracks below pT cut       |          8 |          8 |
| Stopped tracks above max eta      |          0 |          0 |
| Total shared hits                 |          0 |          0 |
|-----------------------------------|------------|------------|
ActsConversionTrackFindingAlg                                     INFO Ratios
|------------------------------------------|------------|------------|
|                                          | SSS        | ALL        |
|------------------------------------------|------------|------------|
| failed / seeds                           |   0.760563 |   0.760563 |
| duplication / seeds                      |          0 |          0 |
| Rejected refined params / seeds          |          0 |          0 |
| selected / CKF tracks                    |          0 |          0 |
| selected tracks / used seeds             |          0 |          0 |
| branched tracks / used seeds             |          0 |          0 |
| no 2nd CKF / CKF tracks                  |          0 |          0 |
| shared hits / CKF tracks                 |          0 |          0 |
|------------------------------------------|------------|------------|
| selected / CKF tracks           0.0- 0.5 |          0 |          0 |
|                                 0.5- 1.0 |          0 |          0 |
|                                 1.0- 1.5 |          0 |          0 |
|                                 1.5- 2.0 |          0 |          0 |
|                                 2.0- 2.5 |          0 |          0 |
|                                 2.5- 3.0 |          0 |          0 |
|                                 3.0- 3.5 |          0 |          0 |
|                                 3.5-+inf |          0 |          0 |
|------------------------------------------|------------|------------|
ActsConversionPrdAssociationAlg                                   INFO Prd Map statistics
|-----------------------|------------|
| N. Tracks             |          0 |
| N. Pixel Measurements |          0 |
| N. Strip Measurements |          0 |
| N. Hgtd Measurements  |          0 |
|-----------------------|------------|
ActsLowPtPixelClusterPreparationAlg                               INFO Data Prep statistics
|---------|------------|
| Inputs  |    1165578 |
| Outputs |    1062494 |
|---------|------------|
ActsLowPtStripClusterPreparationAlg                               INFO Data Prep statistics
|---------|------------|
| Inputs  |    1081478 |
| Outputs |    1040471 |
|---------|------------|
ActsLowPtPixelSpacePointPreparationAlg                            INFO Data Prep statistics
|---------|------------|
| Inputs  |    1165578 |
| Outputs |    1062494 |
|---------|------------|
ActsLowPtStripSpacePointPreparationAlg                            INFO Data Prep statistics
|---------|------------|
| Inputs  |     325456 |
| Outputs |     303062 |
|---------|------------|
ActsLowPtStripOverlapSpacePointPreparationAlg                     INFO Data Prep statistics
|---------|------------|
| Inputs  |     101370 |
| Outputs |      94390 |
|---------|------------|
ActsLowPtPixelSeedingAlg                                          INFO Seed statistics
|-------------|------------|
| Spacepoints |    1062494 |
| Seeds       |      46736 |
|-------------|------------|
ActsLowPtStripSeedingAlg                                          INFO Seed statistics
|-------------|------------|
| Spacepoints |     397452 |
| Seeds       |       9562 |
|-------------|------------|
ActsLowPtTrackFindingAlg                                          INFO statistics
|-----------------------------------|------------|------------|------------|
|                           All eta | PPP        | SSS        | ALL        |
|-----------------------------------|------------|------------|------------|
| Input seeds                       |      46736 |       9562 |      56298 |
| No track parameters               |          0 |          0 |          0 |
| Used   seeds                      |      45928 |       9195 |      55123 |
| Cannot find track                 |      44810 |       7450 |      52260 |
| Duplicate seeds                   |        808 |        367 |       1175 |
| Initial param estimation failed   |          0 |          0 |          0 |
| CKF tracks                        |       1118 |       1745 |       2863 |
| Rejected refined parameters       |          0 |          0 |          0 |
| selected tracks                   |        619 |         44 |        663 |
| Stopped tracks reaching max holes |      44348 |       7408 |      51756 |
| Seeds with more than one branch   |          0 |          0 |          0 |
| Tracks failing second CKF         |          0 |         69 |         69 |
| Stopped tracks below pT cut       |        462 |         42 |        504 |
| Stopped tracks above max eta      |          0 |          0 |          0 |
| Total shared hits                 |       3822 |        462 |       4284 |
|-----------------------------------|------------|------------|------------|
ActsLowPtTrackFindingAlg                                          INFO Ratios
|------------------------------------------|------------|------------|------------|
|                                          | PPP        | SSS        | ALL        |
|------------------------------------------|------------|------------|------------|
| failed / seeds                           |    0.95879 |   0.779126 |   0.928275 |
| duplication / seeds                      |  0.0172886 |  0.0383811 |  0.0208711 |
| Rejected refined params / seeds          |          0 |          0 |          0 |
| selected / CKF tracks                    |   0.553667 |  0.0252149 |   0.231575 |
| selected tracks / used seeds             |  0.0134776 | 0.00478521 |  0.0120276 |
| branched tracks / used seeds             |          0 |          0 |          0 |
| no 2nd CKF / CKF tracks                  |          0 |  0.0395415 |  0.0241006 |
| shared hits / CKF tracks                 |     3.4186 |   0.264756 |    1.49633 |
|------------------------------------------|------------|------------|------------|
| selected / CKF tracks           0.0- 0.5 |    0.82243 |          0 |   0.353414 |
|                                 0.5- 1.0 |   0.955556 |  0.0217391 |   0.390351 |
|                                 1.0- 1.5 |   0.957143 |  0.0769231 |   0.459627 |
|                                 1.5- 2.0 |   0.919255 |  0.0376812 |   0.318182 |
|                                 2.0- 2.5 |  0.0675676 | 0.00168634 |  0.0089955 |
|                                 2.5- 3.0 |  0.0177778 |          0 |  0.0177778 |
|                                 3.0- 3.5 |  0.0107527 |          0 |  0.0107527 |
|                                 3.5-+inf |  0.0746269 |          0 |  0.0746269 |
|------------------------------------------|------------|------------|------------|
ActsLowPtPrdAssociationAlg                                        INFO Prd Map statistics
|-----------------------|------------|
| N. Tracks             |        507 |
| N. Pixel Measurements |       3801 |
| N. Strip Measurements |       4219 |
| N. Hgtd Measurements  |          0 |
|-----------------------|------------|
