ActsPixelClusterizationAlg                                        INFO Clusterization statistics
|----------|------------|
| RDOs     |    3423993 |
| Clusters |    1165578 |
|----------|------------|
ActsStripClusterizationAlg                                        INFO Clusterization statistics
|----------|------------|
| RDOs     |    1345365 |
| Clusters |    1081478 |
|----------|------------|
ActsHgtdClusterizationAlg                                         INFO Clusterization statistics
|----------|------------|
| RDOs     |     341404 |
| Clusters |     341404 |
|----------|------------|
ActsPixelSpacePointFormationAlg                                   INFO Space Point Formation statistics
|--------------|------------|
| Clusters     |    1165578 |
| Space Points |    1165578 |
|--------------|------------|
ActsStripSpacePointFormationAlg                                   INFO Space Point Formation statistics
|----------------------|------------|
| Clusters             |    1081478 |
| Space Points         |     325456 |
| Overlap Space Points |     101370 |
|----------------------|------------|
ActsPixelSeedingAlg                                               INFO Seed statistics
|-------------|------------|
| Spacepoints |    1165578 |
| Seeds       |     123542 |
|-------------|------------|
ActsStripSeedingAlg                                               INFO Seed statistics
|-------------|------------|
| Spacepoints |     426826 |
| Seeds       |      25844 |
|-------------|------------|
ActsTrackFindingAlg                                               INFO statistics
|-----------------------------------|------------|------------|------------|
|                           All eta | PPP        | SSS        | ALL        |
|-----------------------------------|------------|------------|------------|
| Input seeds                       |     123542 |      25844 |     149386 |
| No track parameters               |          0 |          0 |          0 |
| Used   seeds                      |      77703 |      16369 |      94072 |
| Cannot find track                 |      63008 |      12474 |      75482 |
| Duplicate seeds                   |      45839 |       9475 |      55314 |
| Initial param estimation failed   |          0 |          0 |          0 |
| CKF tracks                        |      14695 |       3895 |      18590 |
| Rejected refined parameters       |          0 |          0 |          0 |
| selected tracks                   |      13267 |        818 |      14085 |
| Stopped tracks reaching max holes |      60621 |      11956 |      72577 |
| Seeds with more than one branch   |          0 |          0 |          0 |
| Tracks failing second CKF         |          8 |        195 |        203 |
| Stopped tracks below pT cut       |       2387 |        518 |       2905 |
| Stopped tracks above max eta      |          0 |          0 |          0 |
| Total shared hits                 |      91852 |      18325 |     110177 |
|-----------------------------------|------------|------------|------------|
ActsTrackFindingAlg                                               INFO Ratios
|------------------------------------------|------------|------------|------------|
|                                          | PPP        | SSS        | ALL        |
|------------------------------------------|------------|------------|------------|
| failed / seeds                           |   0.510013 |   0.482665 |   0.505282 |
| duplication / seeds                      |    0.37104 |   0.366623 |   0.370276 |
| Rejected refined params / seeds          |          0 |          0 |          0 |
| selected / CKF tracks                    |   0.902824 |   0.210013 |   0.757665 |
| selected tracks / used seeds             |    0.17074 |  0.0499725 |   0.149726 |
| branched tracks / used seeds             |          0 |          0 |          0 |
| no 2nd CKF / CKF tracks                  | 0.000544403 |  0.0500642 |  0.0109198 |
| shared hits / CKF tracks                 |    6.25056 |    4.70475 |    5.92668 |
|------------------------------------------|------------|------------|------------|
| selected / CKF tracks           0.0- 0.5 |   0.889937 |   0.115681 |   0.708609 |
|                                 0.5- 1.0 |   0.910973 |   0.242424 |   0.732423 |
|                                 1.0- 1.5 |   0.884882 |   0.222798 |     0.6952 |
|                                 1.5- 2.0 |   0.791143 |   0.216752 |   0.546081 |
|                                 2.0- 2.5 |   0.943948 |   0.213115 |   0.695709 |
|                                 2.5- 3.0 |   0.882045 |          0 |    0.88169 |
|                                 3.0- 3.5 |   0.937628 |          0 |   0.937628 |
|                                 3.5-+inf |   0.963062 |          0 |   0.963062 |
|------------------------------------------|------------|------------|------------|
ActsPrdAssociationAlg                                             INFO Prd Map statistics
|-----------------------|------------|
| N. Tracks             |       9567 |
| N. Pixel Measurements |     102721 |
| N. Strip Measurements |      40112 |
| N. Hgtd Measurements  |         23 |
|-----------------------|------------|
ActsLargeRadiusPixelClusterPreparationAlg                         INFO Data Prep statistics
|---------|------------|
| Inputs  |    1165578 |
| Outputs |    1062923 |
|---------|------------|
ActsLargeRadiusStripClusterPreparationAlg                         INFO Data Prep statistics
|---------|------------|
| Inputs  |    1081478 |
| Outputs |    1041400 |
|---------|------------|
ActsLargeRadiusHgtdClusterPreparationAlg                          INFO Data Prep statistics
|---------|------------|
| Inputs  |     341404 |
| Outputs |     341381 |
|---------|------------|
ActsLargeRadiusStripSpacePointPreparationAlg                      INFO Data Prep statistics
|---------|------------|
| Inputs  |     325456 |
| Outputs |     303559 |
|---------|------------|
ActsLargeRadiusStripOv...pSpacePointPreparationAlg                INFO Data Prep statistics
|---------|------------|
| Inputs  |     101370 |
| Outputs |      94560 |
|---------|------------|
ActsLargeRadiusStripSeedingAlg                                    INFO Seed statistics
|-------------|------------|
| Spacepoints |     398119 |
| Seeds       |      10145 |
|-------------|------------|
ActsLargeRadiusTrackFindingAlg                                    INFO statistics
|-----------------------------------|------------|------------|
|                           All eta | SSS        | ALL        |
|-----------------------------------|------------|------------|
| Input seeds                       |      10145 |      10145 |
| No track parameters               |          0 |          0 |
| Used   seeds                      |       9921 |       9921 |
| Cannot find track                 |       8956 |       8956 |
| Duplicate seeds                   |        224 |        224 |
| Initial param estimation failed   |          0 |          0 |
| CKF tracks                        |        965 |        965 |
| Rejected refined parameters       |          0 |          0 |
| selected tracks                   |        132 |        132 |
| Stopped tracks reaching max holes |       6985 |       6985 |
| Seeds with more than one branch   |          0 |          0 |
| Tracks failing second CKF         |         30 |         30 |
| Stopped tracks below pT cut       |       1971 |       1971 |
| Stopped tracks above max eta      |          0 |          0 |
| Total shared hits                 |        776 |        776 |
|-----------------------------------|------------|------------|
ActsLargeRadiusTrackFindingAlg                                    INFO Ratios
|------------------------------------------|------------|------------|
|                                          | SSS        | ALL        |
|------------------------------------------|------------|------------|
| failed / seeds                           |   0.882799 |   0.882799 |
| duplication / seeds                      |  0.0220798 |  0.0220798 |
| Rejected refined params / seeds          |          0 |          0 |
| selected / CKF tracks                    |   0.136788 |   0.136788 |
| selected tracks / used seeds             |  0.0133051 |  0.0133051 |
| branched tracks / used seeds             |          0 |          0 |
| no 2nd CKF / CKF tracks                  |  0.0310881 |  0.0310881 |
| shared hits / CKF tracks                 |   0.804145 |   0.804145 |
|------------------------------------------|------------|------------|
| selected / CKF tracks           0.0- 0.5 |   0.169014 |   0.169014 |
|                                 0.5- 1.0 |   0.228916 |   0.228916 |
|                                 1.0- 1.5 |   0.204301 |   0.204301 |
|                                 1.5- 2.0 |    0.13948 |    0.13948 |
|                                 2.0- 2.5 |  0.0779661 |  0.0779661 |
|                                 2.5- 3.0 |          0 |          0 |
|                                 3.0- 3.5 |          0 |          0 |
|                                 3.5-+inf |          0 |          0 |
|------------------------------------------|------------|------------|
ActsLargeRadiusPrdAssociationAlg                                  INFO Prd Map statistics
|-----------------------|------------|
| N. Tracks             |         97 |
| N. Pixel Measurements |        481 |
| N. Strip Measurements |        934 |
| N. Hgtd Measurements  |          1 |
|-----------------------|------------|
ActsConversionPixelClusterPreparationAlg                          INFO Data Prep statistics
|---------|------------|
| Inputs  |    1165578 |
| Outputs |      27119 |
|---------|------------|
ActsConversionStripClusterPreparationAlg                          INFO Data Prep statistics
|---------|------------|
| Inputs  |    1081478 |
| Outputs |      15518 |
|---------|------------|
ActsConversionHgtdClusterPreparationAlg                           INFO Data Prep statistics
|---------|------------|
| Inputs  |     341404 |
| Outputs |     341380 |
|---------|------------|
ActsConversionStripSpacePointPreparationAlg                       INFO Data Prep statistics
|---------|------------|
| Inputs  |     325456 |
| Outputs |       4505 |
|---------|------------|
ActsConversionStripSeedingAlg                                     INFO Seed statistics
|-------------|------------|
| Spacepoints |       4505 |
| Seeds       |         71 |
|-------------|------------|
ActsConversionTrackFindingAlg                                     INFO statistics
|-----------------------------------|------------|------------|
|                           All eta | SSS        | ALL        |
|-----------------------------------|------------|------------|
| Input seeds                       |         71 |         71 |
| No track parameters               |          0 |          0 |
| Used   seeds                      |         71 |         71 |
| Cannot find track                 |         54 |         54 |
| Duplicate seeds                   |          0 |          0 |
| Initial param estimation failed   |          0 |          0 |
| CKF tracks                        |         17 |         17 |
| Rejected refined parameters       |          0 |          0 |
| selected tracks                   |          0 |          0 |
| Stopped tracks reaching max holes |         46 |         46 |
| Seeds with more than one branch   |          0 |          0 |
| Tracks failing second CKF         |          0 |          0 |
| Stopped tracks below pT cut       |          8 |          8 |
| Stopped tracks above max eta      |          0 |          0 |
| Total shared hits                 |          0 |          0 |
|-----------------------------------|------------|------------|
ActsConversionTrackFindingAlg                                     INFO Ratios
|------------------------------------------|------------|------------|
|                                          | SSS        | ALL        |
|------------------------------------------|------------|------------|
| failed / seeds                           |   0.760563 |   0.760563 |
| duplication / seeds                      |          0 |          0 |
| Rejected refined params / seeds          |          0 |          0 |
| selected / CKF tracks                    |          0 |          0 |
| selected tracks / used seeds             |          0 |          0 |
| branched tracks / used seeds             |          0 |          0 |
| no 2nd CKF / CKF tracks                  |          0 |          0 |
| shared hits / CKF tracks                 |          0 |          0 |
|------------------------------------------|------------|------------|
| selected / CKF tracks           0.0- 0.5 |          0 |          0 |
|                                 0.5- 1.0 |          0 |          0 |
|                                 1.0- 1.5 |          0 |          0 |
|                                 1.5- 2.0 |          0 |          0 |
|                                 2.0- 2.5 |          0 |          0 |
|                                 2.5- 3.0 |          0 |          0 |
|                                 3.0- 3.5 |          0 |          0 |
|                                 3.5-+inf |          0 |          0 |
|------------------------------------------|------------|------------|
ActsConversionPrdAssociationAlg                                   INFO Prd Map statistics
|-----------------------|------------|
| N. Tracks             |          0 |
| N. Pixel Measurements |          0 |
| N. Strip Measurements |          0 |
| N. Hgtd Measurements  |          0 |
|-----------------------|------------|
ActsLowPtPixelClusterPreparationAlg                               INFO Data Prep statistics
|---------|------------|
| Inputs  |    1165578 |
| Outputs |    1062443 |
|---------|------------|
ActsLowPtStripClusterPreparationAlg                               INFO Data Prep statistics
|---------|------------|
| Inputs  |    1081478 |
| Outputs |    1040466 |
|---------|------------|
ActsLowPtHgtdClusterPreparationAlg                                INFO Data Prep statistics
|---------|------------|
| Inputs  |     341404 |
| Outputs |     341380 |
|---------|------------|
ActsLowPtPixelSpacePointPreparationAlg                            INFO Data Prep statistics
|---------|------------|
| Inputs  |    1165578 |
| Outputs |    1062443 |
|---------|------------|
ActsLowPtStripSpacePointPreparationAlg                            INFO Data Prep statistics
|---------|------------|
| Inputs  |     325456 |
| Outputs |     303062 |
|---------|------------|
ActsLowPtStripOverlapSpacePointPreparationAlg                     INFO Data Prep statistics
|---------|------------|
| Inputs  |     101370 |
| Outputs |      94386 |
|---------|------------|
ActsLowPtPixelSeedingAlg                                          INFO Seed statistics
|-------------|------------|
| Spacepoints |    1062443 |
| Seeds       |      46721 |
|-------------|------------|
ActsLowPtStripSeedingAlg                                          INFO Seed statistics
|-------------|------------|
| Spacepoints |     397448 |
| Seeds       |       9561 |
|-------------|------------|
ActsLowPtTrackFindingAlg                                          INFO statistics
|-----------------------------------|------------|------------|------------|
|                           All eta | PPP        | SSS        | ALL        |
|-----------------------------------|------------|------------|------------|
| Input seeds                       |      46721 |       9561 |      56282 |
| No track parameters               |          0 |          0 |          0 |
| Used   seeds                      |      45913 |       9194 |      55107 |
| Cannot find track                 |      44781 |       7441 |      52222 |
| Duplicate seeds                   |        808 |        367 |       1175 |
| Initial param estimation failed   |          0 |          0 |          0 |
| CKF tracks                        |       1132 |       1753 |       2885 |
| Rejected refined parameters       |          0 |          0 |          0 |
| selected tracks                   |        619 |         44 |        663 |
| Stopped tracks reaching max holes |      44320 |       7398 |      51718 |
| Seeds with more than one branch   |          0 |          0 |          0 |
| Tracks failing second CKF         |          0 |         69 |         69 |
| Stopped tracks below pT cut       |        461 |         43 |        504 |
| Stopped tracks above max eta      |          0 |          0 |          0 |
| Total shared hits                 |       3822 |        462 |       4284 |
|-----------------------------------|------------|------------|------------|
ActsLowPtTrackFindingAlg                                          INFO Ratios
|------------------------------------------|------------|------------|------------|
|                                          | PPP        | SSS        | ALL        |
|------------------------------------------|------------|------------|------------|
| failed / seeds                           |   0.958477 |   0.778266 |   0.927863 |
| duplication / seeds                      |  0.0172941 |  0.0383851 |   0.020877 |
| Rejected refined params / seeds          |          0 |          0 |          0 |
| selected / CKF tracks                    |    0.54682 |  0.0250998 |   0.229809 |
| selected tracks / used seeds             |   0.013482 | 0.00478573 |  0.0120311 |
| branched tracks / used seeds             |          0 |          0 |          0 |
| no 2nd CKF / CKF tracks                  |          0 |  0.0393611 |  0.0239168 |
| shared hits / CKF tracks                 |    3.37633 |   0.263548 |    1.48492 |
|------------------------------------------|------------|------------|------------|
| selected / CKF tracks           0.0- 0.5 |    0.82243 |          0 |   0.353414 |
|                                 0.5- 1.0 |   0.955556 |  0.0217391 |   0.390351 |
|                                 1.0- 1.5 |   0.957143 |  0.0769231 |   0.459627 |
|                                 1.5- 2.0 |   0.919255 |  0.0376812 |   0.318182 |
|                                 2.0- 2.5 |  0.0675676 | 0.00166667 | 0.00890208 |
|                                 2.5- 3.0 |  0.0176991 |          0 |  0.0176211 |
|                                 3.0- 3.5 | 0.00943396 |          0 | 0.00943396 |
|                                 3.5-+inf |  0.0746269 |          0 |  0.0746269 |
|------------------------------------------|------------|------------|------------|
ActsLowPtPrdAssociationAlg                                        INFO Prd Map statistics
|-----------------------|------------|
| N. Tracks             |        507 |
| N. Pixel Measurements |       3801 |
| N. Strip Measurements |       4219 |
| N. Hgtd Measurements  |          0 |
|-----------------------|------------|
